Evaluate model performance – r-dcm
…
To use code in this article, you will need to install the following packages: dcmdata, measr, and rstan.

library(measr) # for model evaluation

# Helper packages
library(dcmdata) # for example data set
library(rstan) # for estimation backend

Diagnosing Teachers’ Multiplicative Reasoning (DTMR) data

We’ll use data from the DTMR project to demonstrate each of these evaluation tools. The DTMR assessment measures four attributes related to multiplicative reasoning in mathematics teachers. In total, the DTMR data contains responses to 27 items from 990 respondents.

dtmr_data
#> # A tibble: 990 × 28
#>    id      `1`   `2`   `3`   `4`   `5`   `6`   `7`  `8a`  `8b`  `8c`  `8d`   `9`
#>    <fct> <int> <int> <int> <int> <int> <int> <int> <int> <int> <int> <int> <int>
#>  1 0008…     1     1     0     1     0     0     1     1     0     1     1     0
#>  2 0009…     0     1     0     0     0     0     0     1     1     1     0     1
#>  3 0024…     0     1     0     0     0     0     1     1     1     1     0     0
#>  4 0031…     0     1     0     0     1     0     1     1     1     0     0     0
#>  5 0061…     0     1     1     0     0     0     0     0     0     1     0     0
#>  6 0087…     0     1     1     1     0     0     0     1     1     1     1     0
#>  7 0092…     0     1     1     1     1     0     0     1     1     1     0     0
#>  8 0097…     0     0     0     1     0     0     0     1     0     1     0     0
#>  9 0111…     0     1     1     0     0     0     0     1     0     1     1     0
#> 10 0121…     0     1     0     0     0     0     0     1     1     1     1     0
#> # ℹ 980 more rows
#> # ℹ 15 more variables: `10a` <int>, `10b` <int>, `10c` <int>, `11` <int>,
#> #   `12` <int>, `13` <int>, `14` <int>, `15a` <int>, `15b` <int>, `15c` <int>,
#> #   `16` <int>, `17` <int>, `18` <int>, `21` <int>, `22` <int>

Alongside the response data, we also have a Q-matrix that maps items to the 4 attributes measured by the assessment. These attributes represent aspects of multiplicative reasoning including and understanding of referent units, partitioning and iterating, appropriateness, and multiplicative comparison. For more information on the data set, see ?dtmr and Bradshaw et al. (2014).

dtmr_qmatrix
#> # A tibble: 27 × 5
#>    item  referent_units partitioning_iterating appropriateness
#>    <chr>          <dbl>                  <dbl>           <dbl>
#>  1 1                  1                      0               0
#>  2 2                  0                      0               1
#>  3 3                  0                      1               0
#>  4 4                  1                      0               0
#>  5 5                  1                      0               0
#>  6 6                  0                      1               0
#>  7 7                  1                      0               0
#>  8 8a                 0                      0               1
#>  9 8b                 0                      0               1
#> 10 8c                 0                      0               1
#> # ℹ 17 more rows
#> # ℹ 1 more variable: multiplicative_comparison <dbl>
…
