dcmstan 0.1.0 – r-dcm
…
install.packages("dcmstan")

This blog post will highlight the major features and describe how dcmstan fits into the larger universe of r-dcm packages.

library(dcmstan)
#> Warning: package 'dcmstan' was built under R version 4.5.2

DCM specification

For this example, we’ll create a specification for a DCM that we want to fit to ECPE data, which is available in the {dcmdata} package.

library(dcmdata)

ecpe_qmatrix
#> # A tibble: 28 × 4
#>    item_id morphosyntactic cohesive lexical
#>    <chr>             <int>    <int>   <int>
#>  1 E1                    1        1       0
#>  2 E2                    0        1       0
#>  3 E3                    1        0       1
#>  4 E4                    0        0       1
#>  5 E5                    0        0       1
#>  6 E6                    0        0       1
#>  7 E7                    1        0       1
#>  8 E8                    0        1       0
#>  9 E9                    0        0       1
#> 10 E10                   1        0       0
#> # ℹ 18 more rows

ecpe_data
#> # A tibble: 2,922 × 29
#>    resp_id    E1    E2    E3    E4    E5    E6    E7    E8    E9   E10   E11
#>      <int> <int> <int> <int> <int> <int> <int> <int> <int> <int> <int> <int>
#>  1       1     1     1     1     0     1     1     1     1     1     1     1
#>  2       2     1     1     1     1     1     1     1     1     1     1     1
#>  3       3     1     1     1     1     1     1     0     1     1     1     1
#>  4       4     1     1     1     1     1     1     1     1     1     1     1
#>  5       5     1     1     1     1     1     1     1     1     1     1     1
#>  6       6     1     1     1     1     1     1     1     1     1     1     1
#>  7       7     1     1     1     1     1     1     1     1     1     1     1
#>  8       8     0     1     1     1     1     1     0     1     1     1     0
#>  9       9     1     1     1     1     1     1     1     1     1     1     1
#> 10      10     1     1     1     1     0     0     1     1     1     1     1
#> # ℹ 2,912 more rows
#> # ℹ 17 more variables: E12 <int>, E13 <int>, E14 <int>, E15 <int>, E16 <int>,
#> #   E17 <int>, E18 <int>, E19 <int>, E20 <int>, E21 <int>, E22 <int>,
#> #   E23 <int>, E24 <int>, E25 <int>, E26 <int>, E27 <int>, E28 <int>
…
We can also specify prior distributions for the model. Reasonable priors are defined by default, but custom priors can be specified for specific parameters or an entire type of parameters (e.g., applies to all intercept parameters). For a list of possible parameters for given specification, see get_parameters().

get_parameters(ecpe_spec)
#> # A tibble: 75 × 4
#>    item_id type        attributes                coefficient
#>    <chr>   <chr>       <chr>                     <chr>      
#>  1 E1      intercept   <NA>                      l1_0       
#>  2 E1      maineffect  morphosyntactic           l1_11      
#>  3 E1      maineffect  cohesive                  l1_12      
#>  4 E1      interaction morphosyntactic__cohesive l1_212     
#>  5 E2      intercept   <NA>                      l2_0       
#>  6 E2      maineffect  cohesive                  l2_12      
#>  7 E3      intercept   <NA>                      l3_0       
#>  8 E3      maineffect  morphosyntactic           l3_11      
#>  9 E3      maineffect  lexical                   l3_13      
#> 10 E3      interaction morphosyntactic__lexical  l3_213     
#> # ℹ 65 more rows
…
