Specify a diagnostic model – r-dcm
…
To use code in this article, you will need to install the following packages: dcmdata, measr, and rstan.

library(measr)     # for model specification and estimation

# Helper packages
library(dcmdata)   # for example data set
library(rstan)     # for estimation backend

Rapid Online Assessment of Reading and Phonological Awareness (ROAR-PA) data

Let’s use data from the ROAR-PA (Gijbels et al., 2024) to learn how to specify and estimate a DCM with measr. The ROAR-PA data is available in the dcmdata package, and contains responses to 57 items from 272 respondents.

roarpa_data
#> # A tibble: 272 × 58
#>       id fsm_01 fsm_04 fsm_05 fsm_06 fsm_07 fsm_08 fsm_10 fsm_11 fsm_12 fsm_14
#>    <int>  <int>  <int>  <int>  <int>  <int>  <int>  <int>  <int>  <int>  <int>
#>  1   161      0      1      1      1      1      0      0      1      1      1
#>  2   226      0      1      0      1      0      0      1      0      1      0
#>  3   103      0      1      0      1      0      0      0      0      0      0
#>  4     7      1      1      0      0      1      0      0      0      1      1
#>  5   185      1      1      1      1      1      1      1      1      1      1
#>  6   129      1      1      1      0      1      1      0      0      1      1
#>  7   181      1      1      1      1      1      1      1      1      1      1
#>  8    36      1      1      1      1      1      1      1      1      1      1
#>  9   206      1      1      1      1      1      1      1      1      1      1
#> 10   257      1      1      1      1      1      1      1      1      1      1
#> # ℹ 262 more rows
#> # ℹ 47 more variables: fsm_15 <int>, fsm_16 <int>, fsm_17 <int>, fsm_18 <int>,
#> #   fsm_21 <int>, fsm_22 <int>, fsm_23 <int>, fsm_24 <int>, fsm_25 <int>,
#> #   lsm_01 <int>, lsm_02 <int>, lsm_04 <int>, lsm_05 <int>, lsm_06 <int>,
#> #   lsm_07 <int>, lsm_08 <int>, lsm_10 <int>, lsm_11 <int>, lsm_13 <int>,
#> #   lsm_15 <int>, lsm_16 <int>, lsm_17 <int>, lsm_18 <int>, lsm_19 <int>,
#> #   lsm_20 <int>, lsm_21 <int>, lsm_22 <int>, lsm_24 <int>, del_01 <int>, …

In addition to our response data, a DCM also requires a Q-matrix. A Q-matrix contains one row per item, and one column per attribute (plus an optional column of item identifiers). A value of 1 indicates that the item measures the attribute, and a value of 0 indicates the item does not measure the attribute. In our Q-matrix, we can see that the item identifiers in the in the rows (item) correspond to the column names of the data. Additionally, we see that there are three attributes measured by this assessment: lsm, del, and fsm. These refer to the first sound made (fsm), last sound made (lsm), and deletion (del) elements of phonological awareness.

roarpa_qmatrix
#> # A tibble: 57 × 4
#>    item     lsm   del   fsm
#>    <chr>  <int> <int> <int>
#>  1 fsm_01     0     0     1
#>  2 fsm_04     0     0     1
#>  3 fsm_05     0     0     1
#>  4 fsm_06     0     0     1
#>  5 fsm_07     0     0     1
#>  6 fsm_08     0     0     1
#>  7 fsm_10     0     0     1
#>  8 fsm_11     0     0     1
#>  9 fsm_12     0     0     1
#> 10 fsm_14     0     0     1
#> # ℹ 47 more rows
…
default_dcm_priors(
  measurement_model = dina(),
  structural_model = independent()
)
#> # A tibble: 3 × 3
#>   type       coefficient prior      
#>   <chr>      <chr>       <chr>      
#> 1 slip       <NA>        beta(5, 25)
#> 2 guess      <NA>        beta(5, 25)
#> 3 structural <NA>        beta(1, 1)

You can see which parameter types and specific coefficients are available for your model using get_parameters().

get_parameters(lcdm(), qmatrix = roarpa_qmatrix, identifier = "item")
#> # A tibble: 114 × 4
#>    item   type       attributes coefficient
#>    <chr>  <chr>      <chr>      <chr>      
#>  1 fsm_01 intercept  <NA>       l1_0       
#>  2 fsm_01 maineffect fsm        l1_13      
#>  3 fsm_04 intercept  <NA>       l2_0       
#>  4 fsm_04 maineffect fsm        l2_13      
#>  5 fsm_05 intercept  <NA>       l3_0       
#>  6 fsm_05 maineffect fsm        l3_13      
#>  7 fsm_06 intercept  <NA>       l4_0       
#>  8 fsm_06 maineffect fsm        l4_13      
#>  9 fsm_07 intercept  <NA>       l5_0       
#> 10 fsm_07 maineffect fsm        l5_13      
#> # ℹ 104 more rows
…
Respondent proficiency estimates

After estimating a model, we typically want to know which attributes each respondent has mastered. The score() function calculates respondent proficiency estimates from a fitted model. It returns a list with two elements: class_probabilities, which contains the probability that each respondent belongs to each possible attribute profile, and attribute_probabilities, which contains the marginal probability that each respondent is proficient on each individual attribute.

roarpa_scores <- score(roarpa_lcdm)
roarpa_scores
#> $class_probabilities
#> # A tibble: 2,176 × 3
#>    id    class   probability
#>    <chr> <chr>         <dbl>
#>  1 161   [0,0,0]   2.59 e- 1
#>  2 161   [1,0,0]   2.24 e-10
#>  3 161   [0,1,0]   7.41 e- 1
#>  4 161   [0,0,1]   1.10 e- 7
#>  5 161   [1,1,0]   7.97 e- 9
#>  6 161   [1,0,1]   1.29 e-15
#>  7 161   [0,1,1]   2.35 e- 6
#>  8 161   [1,1,1]   2.14 e-13
#>  9 226   [0,0,0]   1.000e+ 0
#> 10 226   [1,0,0]   6.65 e-11
#> # ℹ 2,166 more rows
#> 
#> $attribute_probabilities
#> # A tibble: 816 × 3
#>    id    attribute probability
#>    <chr> <chr>           <dbl>
#>  1 161   lsm          8.19e- 9
#>  2 161   del          7.41e- 1
#>  3 161   fsm          2.46e- 6
#>  4 226   lsm          6.65e-11
#>  5 226   del          5.07e-10
#>  6 226   fsm          1.19e- 7
#>  7 103   lsm          2.41e-13
#>  8 103   del          3.79e- 6
#>  9 103   fsm          2.62e-14
#> 10 7     lsm          2.14e-15
#> # ℹ 806 more rows

In practice, we often want to convert these probabilities into binary proficiency classifications. A common approach is to use a threshold of .5, classifying a respondent as proficient on an attribute if their estimated probability of proficiency exceeds .5. The choice of threshold matters and can be adjusted based on the intended use of the results.

library(tidyverse)

roarpa_scores$attribute_probabilities |> 
  mutate(probability = as.integer(probability > .5)) |> 
  pivot_wider(names_from = attribute, values_from = probability)
#> # A tibble: 272 × 4
#>    id      lsm   del   fsm
#>    <chr> <int> <int> <int>
#>  1 161       0     1     0
#>  2 226       0     0     0
#>  3 103       0     0     0
#>  4 7         0     0     0
#>  5 185       1     0     1
#>  6 129       0     0     0
#>  7 181       1     1     1
#>  8 36        1     1     1
#>  9 206       1     1     1
#> 10 257       1     1     1
#> # ℹ 262 more rows
…
