dcmdata 0.2.0 – r-dcm
…
Level 1: Recognize the order of elements in a repeating pattern.

Level 2: Organize two numeric patterns in a table.

Level 3: Translate two numeric patterns into ordered pairs.

There are two PIE data sets representing different phases of the project:

pie_ft_data and pie_ft_qmatrix contain data from the Spring 2024 field test, where each student responded to items measuring all three levels at a single time point.

pie_pilot_data and pie_pilot_qmatrix contain data from the 2024–2025 pilot administration, where assessments were spread across three time points: baseline (before instruction, measuring Level 1 only), midway (measuring Level 2, and re-assessing Level 1 for students who hadn’t yet demonstrated mastery), and end_of_unit (measuring Level 3, and re-assessing Level 2 as needed).

pie_ft_data
#> # A tibble: 172 × 16
#>    student `00592` `14415` `56400` `64967` `06238` `10231` `54596` `96748`
#>    <chr>     <int>   <int>   <int>   <int>   <int>   <int>   <int>   <int>
#>  1 8978593       1       1       1       1       1       0       1       1
#>  2 5231294       1       1       1       1       1       1       1       1
#>  3 3681220       1       1       1       1       1       1       1       1
#>  4 7763384       1       0       1       1       1       1       1       1
#>  5 1913897       1       1       1       1       1       1       1       1
#>  6 0692477       1       1       1       1       1       1       1       1
#>  7 6961042       1       1       0       1       1       1       1       1
#>  8 4241777       1       1       1       1       1       1       1       1
#>  9 3068583       1       1       1       1       1       1       1       1
#> 10 6607413       1       1       1       1       1       1       1       1
#> # ℹ 162 more rows
#> # ℹ 7 more variables: `97634` <int>, `13080` <int>, `27971` <int>,
#> #   `56741` <int>, `63088` <int>, `81175` <int>, `88063` <int>
…
The pilot data includes a time column, which makes it straightforward to filter to a particular assessment window:

pie_pilot_data
#> # A tibble: 2,370 × 19
#>    student time  `00592` `14415` `56400` `33008` `49531` `96568` `06238` `54596`
#>    <chr>   <fct>   <dbl>   <dbl>   <dbl>   <dbl>   <dbl>   <dbl>   <dbl>   <dbl>
#>  1 9774034 base…       1       1       1      NA      NA      NA      NA      NA
#>  2 3719616 base…       1       1       1      NA      NA      NA      NA      NA
#>  3 6300607 base…       1       1       0      NA      NA      NA      NA      NA
#>  4 9006170 base…       1       1       1      NA      NA      NA      NA      NA
#>  5 3852370 base…       1       1       1      NA      NA      NA      NA      NA
#>  6 7020068 base…       1       1       1      NA      NA      NA      NA      NA
#>  7 7347730 base…       1       1       1      NA      NA      NA      NA      NA
#>  8 7115840 base…       1       0       0      NA      NA      NA      NA      NA
#>  9 3483273 base…       1       0       0      NA      NA      NA      NA      NA
#> 10 8994582 base…       1       1       1      NA      NA      NA      NA      NA
#> # ℹ 2,360 more rows
#> # ℹ 9 more variables: `96748` <dbl>, `97634` <dbl>, `10231` <dbl>,
#> #   `38641` <dbl>, `97673` <dbl>, `13080` <dbl>, `27971` <dbl>, `56741` <dbl>,
#> #   `63088` <dbl>
…
