measr 0.2.1 | r-dcm – r-dcm
…
install.packages("measr")

This blog post will highlight the main features of the package.

library(measr)

Estimating DCMs

To illustrate DCMs and their application with measr, we’ll use a simulated data set. In this data set, we have 1,000 respondents who each answered 15 questions about addition, multiplication, and fractions. For each item, a 1 represents a correct response to the item, and a 0 represents an incorrect response.

library(tidyverse)

dat <- read_csv("data/example-data.csv")
dat
#> # A tibble: 1,000 × 16
#>    resp_id item_01 item_02 item_03 item_04 item_05 item_06 item_07 item_08
#>      <dbl>   <dbl>   <dbl>   <dbl>   <dbl>   <dbl>   <dbl>   <dbl>   <dbl>
#>  1       1       1       1       1       0       1       1       0       1
#>  2       2       1       1       0       0       0       1       0       1
#>  3       3       1       1       0       0       0       1       0       1
#>  4       4       1       0       1       0       1       0       1       1
#>  5       5       1       1       0       0       0       1       1       0
#>  6       6       1       1       0       0       0       1       0       1
#>  7       7       1       1       1       0       0       1       1       1
#>  8       8       0       0       0       0       0       0       0       1
#>  9       9       0       1       0       0       0       1       0       0
#> 10      10       1       1       0       1       1       1       0       1
#> # ℹ 990 more rows
#> # ℹ 7 more variables: item_09 <dbl>, item_10 <dbl>, item_11 <dbl>,
#> #   item_12 <dbl>, item_13 <dbl>, item_14 <dbl>, item_15 <dbl>
…
Evaluating DCMs

There are several functions included for evaluating the model. For example we can examine the probability that each respondent is proficient in each attribute. Here, respondent 1 is likely proficient in all skills, whereas respondent 2 is likely only proficient in addition.

lcdm <- add_respondent_estimates(lcdm)
measr_extract(lcdm, "attribute_prob")
#> # A tibble: 1,000 × 4
#>    resp_id addition multiplication fractions
#>    <fct>      <dbl>          <dbl>     <dbl>
#>  1 1       0.997          0.977      0.920  
#>  2 2       1.00           0.00297    0.0102 
#>  3 3       1.00           0.133      0.0370 
#>  4 4       0.0228         1.00       0.0556 
#>  5 5       0.999          0.0253     0.0223 
#>  6 6       1.00           0.00297    0.00224
#>  7 7       0.998          0.469      0.938  
#>  8 8       0.000520       0.0233     0.0194 
#>  9 9       0.984          0.000116   0.00641
#> 10 10      0.997          0.920      0.957  
#> # ℹ 990 more rows
…
