A diagnostic assessment case study – r-dcm
…
To use code in this article, you will need to install the following packages: dcmdata, measr, and rstan.

library(measr) # for model estimation and evaluation

# Helper packages
library(dcmdata) # for example data set
library(rstan) # for estimation backend

Pathways for Instructionally Embedded Assessment (PIE) data

We’ll use data from the Pathways for Instructionally Embedded Assessment (PIE; Accessible Teaching, Learning, and Assessment Systems, 2025) field test to explore attribute hierarchies. The PIE field test data is available in dcmdata, and contains responses to 15 items from 172 students.

pie_ft_data
#> # A tibble: 172 × 16
#>    student `00592` `14415` `56400` `64967` `06238` `10231` `54596` `96748`
#>    <chr>     <int>   <int>   <int>   <int>   <int>   <int>   <int>   <int>
#>  1 8978593       1       1       1       1       1       0       1       1
#>  2 5231294       1       1       1       1       1       1       1       1
#>  3 3681220       1       1       1       1       1       1       1       1
#>  4 7763384       1       0       1       1       1       1       1       1
#>  5 1913897       1       1       1       1       1       1       1       1
#>  6 0692477       1       1       1       1       1       1       1       1
#>  7 6961042       1       1       0       1       1       1       1       1
#>  8 4241777       1       1       1       1       1       1       1       1
#>  9 3068583       1       1       1       1       1       1       1       1
#> 10 6607413       1       1       1       1       1       1       1       1
#> # ℹ 162 more rows
#> # ℹ 7 more variables: `97634` <int>, `13080` <int>, `27971` <int>,
#> #   `56741` <int>, `63088` <int>, `81175` <int>, `88063` <int>
…
Item parameters

The item parameters define the log-odds of a student in each class providing a correct response. We can again extract our estimated item parameters using measr_extract(). Here, the estimate column reports estimated value for each parameter and a measure of the associated error (i.e., the standard deviation of the posterior distribution). For example, task 00592 has two parameters, as it measures two attributes:

An intercept, which represents the log-odds of providing a correct response for a student who is not proficient on the attribute this item measures (i.e., Level 1).

A main effect for Level 1 skills, which represents the increase in the log-odds of providing a correct response for a student who is proficient on that attribute.

item_parameters <- measr_extract(pie_lcdm, what = "item_param")
item_parameters
#> # A tibble: 30 × 5
#>    task  type       attributes coefficient      estimate
#>    <chr> <chr>      <chr>      <chr>          <rvar[1d]>
#>  1 00592 intercept  <NA>       l1_0          3.07 ± 0.98
#>  2 00592 maineffect L1         l1_11         2.78 ± 2.94
#>  3 14415 intercept  <NA>       l2_0          1.80 ± 0.91
#>  4 14415 maineffect L1         l2_11         3.03 ± 2.92
#>  5 56400 intercept  <NA>       l3_0         -0.36 ± 0.87
#>  6 56400 maineffect L1         l3_11         1.89 ± 1.77
#>  7 64967 intercept  <NA>       l4_0          1.94 ± 0.79
#>  8 64967 maineffect L1         l4_11         2.49 ± 2.53
#>  9 06238 intercept  <NA>       l5_0          2.25 ± 0.70
#> 10 06238 maineffect L2         l5_12         1.55 ± 1.92
#> # ℹ 20 more rows
…
