Define attribute relationships – r-dcm
…
To use code in this article, you will need to install the following packages: cmdstanr, dcmdata, and measr.

library(measr) # for model estimation and evaluation

# Helper packages
library(dcmdata) # for example data set
library(cmdstanr) # for estimation backend

Examination for the Certificate of Proficiency in English (ECPE) data

To demonstrate how to specify heirarhcies with measr, we’ll use the ECPE data. The ECPE data has been widely used in the DCM research literature, and was the inspiration used by Templin & Bradshaw (2014) for their development of the hierarchcial DCM. The ECPE data measures three attributes related to rules of the English language. In total, the data set contains responses to 28 items from 2,922 respondents.

ecpe_data
#> # A tibble: 2,922 × 29
#>    resp_id    E1    E2    E3    E4    E5    E6    E7    E8    E9   E10   E11
#>      <int> <int> <int> <int> <int> <int> <int> <int> <int> <int> <int> <int>
#>  1       1     1     1     1     0     1     1     1     1     1     1     1
#>  2       2     1     1     1     1     1     1     1     1     1     1     1
#>  3       3     1     1     1     1     1     1     0     1     1     1     1
#>  4       4     1     1     1     1     1     1     1     1     1     1     1
#>  5       5     1     1     1     1     1     1     1     1     1     1     1
#>  6       6     1     1     1     1     1     1     1     1     1     1     1
#>  7       7     1     1     1     1     1     1     1     1     1     1     1
#>  8       8     0     1     1     1     1     1     0     1     1     1     0
#>  9       9     1     1     1     1     1     1     1     1     1     1     1
#> 10      10     1     1     1     1     0     0     1     1     1     1     1
#> # ℹ 2,912 more rows
#> # ℹ 17 more variables: E12 <int>, E13 <int>, E14 <int>, E15 <int>, E16 <int>,
#> #   E17 <int>, E18 <int>, E19 <int>, E20 <int>, E21 <int>, E22 <int>,
#> #   E23 <int>, E24 <int>, E25 <int>, E26 <int>, E27 <int>, E28 <int>

In addition to the response data, we also have a Q-matrix defining which items measure each of the 3 attributes. These attributes represent knowledge of differnt rules of the English language:

Lexical: vocabulary (e.g., word choices, idioms)

Cohesive: connection (e.g., pronouns, conjunctions, transitions)

Morphosyntactic: grammar (e.g., prefixes and suffixes, tense, verb conjugations)

ecpe_qmatrix
#> # A tibble: 28 × 4
#>    item_id morphosyntactic cohesive lexical
#>    <chr>             <int>    <int>   <int>
#>  1 E1                    1        1       0
#>  2 E2                    0        1       0
#>  3 E3                    1        0       1
#>  4 E4                    0        0       1
#>  5 E5                    0        0       1
#>  6 E6                    0        0       1
#>  7 E7                    1        0       1
#>  8 E8                    0        1       0
#>  9 E9                    0        0       1
#> 10 E10                   1        0       0
#> # ℹ 18 more rows
…
If we look at the respondent proficiency estimates, we see that we still get a proficiency estimate for each student on each attribute ($attribute_probabilities), but in the class probabilities, we only see the classes that are allowed by the specification ($class_probabilities).

score(ecpe_hdcm)
#> $class_probabilities
#> # A tibble: 11,688 × 5
#>    resp_id class   probability     `2.5%`    `97.5%`
#>    <chr>   <chr>         <dbl>      <dbl>      <dbl>
#>  1 1       [0,0,0]  0.00000803 0.00000664 0.00000951
#>  2 1       [0,0,1]  0.00168    0.00154    0.00198   
#>  3 1       [0,1,1]  0.00260    0.00215    0.00302   
#>  4 1       [1,1,1]  0.996      0.995      0.996     
#>  5 2       [0,0,0]  0.00000645 0.00000444 0.00000869
#>  6 2       [0,0,1]  0.00498    0.00373    0.00554   
#>  7 2       [0,1,1]  0.00259    0.00214    0.00300   
#>  8 2       [1,1,1]  0.992      0.992      0.994     
#>  9 3       [0,0,0]  0.00000597 0.00000439 0.00000777
#> 10 3       [0,0,1]  0.00276    0.00192    0.00374   
#> # ℹ 11,678 more rows
#> 
#> $attribute_probabilities
#> # A tibble: 8,766 × 5
#>    resp_id attribute       probability `2.5%` `97.5%`
#>    <chr>   <chr>                 <dbl>  <dbl>   <dbl>
#>  1 1       morphosyntactic       0.996  0.995   0.996
#>  2 1       cohesive              0.998  0.998   0.998
#>  3 1       lexical               1.000  1.000   1.000
#>  4 2       morphosyntactic       0.992  0.992   0.994
#>  5 2       cohesive              0.995  0.994   0.996
#>  6 2       lexical               1.000  1.000   1.000
#>  7 3       morphosyntactic       0.979  0.973   0.985
#>  8 3       cohesive              0.997  0.996   0.998
#>  9 3       lexical               1.000  1.000   1.000
#> 10 4       morphosyntactic       0.997  0.997   0.997
#> # ℹ 8,756 more rows
…
