measr 2.0.0 – r-dcm
…
We added several new tools for evaluating a model once it is estimated. These include updates to how to extract parameter estimates and other information from a model, new functions for evaluating model assumptions, and additional methods for conducting model comparisons.

Extract information

We’ve added a few new elements that can be extracted from a model with measr_extract(). We can extract the base rate of proficiency or presence on each of the attributes with what = "attribute_base_rate". We can also now extract the π matrix with what = "pi_matrix", which is the estimated probability that a respondent in each class will provide a correct response to each item.

measr_extract(lcdm, what = "attribute_base_rate")
#> # A tibble: 1 × 3
#>   morphosyntactic     cohesive       lexical
#>        <rvar[1d]>   <rvar[1d]>    <rvar[1d]>
#> 1    0.38 ± 0.016  0.55 ± 0.02  0.67 ± 0.019

measr_extract(lcdm, what = "pi_matrix")
#> # A tibble: 28 × 9
#>    item_id     `[0,0,0]`     `[1,0,0]`      `[0,1,0]`      `[0,0,1]`
#>    <chr>      <rvar[1d]>    <rvar[1d]>     <rvar[1d]>     <rvar[1d]>
#>  1 E1       0.69 ± 0.014  0.76 ± 0.030  0.81 ± 0.0227  0.69 ± 0.0138
#>  2 E2       0.75 ± 0.011  0.75 ± 0.011  0.92 ± 0.0104  0.75 ± 0.0113
#>  3 E3       0.42 ± 0.010  0.54 ± 0.023  0.42 ± 0.0104  0.52 ± 0.0300
#>  4 E4       0.47 ± 0.013  0.47 ± 0.013  0.47 ± 0.0129  0.82 ± 0.0125
#>  5 E5       0.76 ± 0.012  0.76 ± 0.012  0.76 ± 0.0123  0.96 ± 0.0065
#>  6 E6       0.72 ± 0.014  0.72 ± 0.014  0.72 ± 0.0143  0.94 ± 0.0099
#>  7 E7       0.47 ± 0.015  0.72 ± 0.059  0.47 ± 0.0150  0.68 ± 0.0206
#>  8 E8       0.82 ± 0.011  0.82 ± 0.011  0.97 ± 0.0068  0.82 ± 0.0107
#>  9 E9       0.54 ± 0.010  0.54 ± 0.010  0.54 ± 0.0105  0.80 ± 0.0121
#> 10 E10      0.50 ± 0.012  0.88 ± 0.014  0.50 ± 0.0117  0.50 ± 0.0117
#> # ℹ 18 more rows
#> # ℹ 4 more variables: `[1,1,0]` <rvar[1d]>, `[1,0,1]` <rvar[1d]>,
#> #   `[0,1,1]` <rvar[1d]>, `[1,1,1]` <rvar[1d]>
…
Check assumptions

As with any psychometric model, DCMs make assumptions that we should check. This release comes with checks for two key assumptions: local item dependence and the accuracy of the Q-matrix.

Local item dependence refers to the assumption that item responses are independent of each other, conditional on the respondents’ attribute patterns. That is, after we account for the respondents attribute pattern, we should not see any additional or residual relationship among the items. This is often checked using the Q3 statistic (Yen, 1984), which can now be calculated with yens_q3(). yens_q3() will calculate the residual correlations between items and optionally flag any item pairs above a critical value. A significant number of residual correlations, particularly if the same group of items are involved, may indicate additional dimensions (i.e., attributes) that should be included.

We can also evaluate the alignment of items to the attributes identified in the Q-matrix. qmatrix_validation() implements the method described by de la Torre & Chiu (2016) to determine if there are other Q-matrix specifications that would better explain the response data. For example, in our ECPE model, item E9 measures only the third attribute (lexical rules) in the Q-matrix used to estimate the model. However, the data suggests that this item may also be measuring the first attribute (morphosyntactic rules). Note that this method will not evaluate whether the number of attributes is correct, only the item to attribute alignment.

qmatrix_validation(lcdm)
#> # A tibble: 28 × 5
#>    item_id original_specification original_pvaf empirical_specification
#>    <chr>   <chr>                          <dbl> <chr>                  
#>  1 E1      [1, 1, 0]                      0.994 <NA>                   
#>  2 E2      [0, 1, 0]                      0.993 <NA>                   
#>  3 E3      [1, 0, 1]                      0.996 <NA>                   
#>  4 E4      [0, 0, 1]                      0.982 <NA>                   
#>  5 E5      [0, 0, 1]                      0.993 <NA>                   
#>  6 E6      [0, 0, 1]                      0.983 <NA>                   
#>  7 E7      [1, 0, 1]                      0.999 <NA>                   
#>  8 E8      [0, 1, 0]                      0.994 <NA>                   
#>  9 E9      [0, 0, 1]                      0.909 [1, 0, 1]              
#> 10 E10     [1, 0, 0]                      0.978 <NA>                   
#> # ℹ 18 more rows
#> # ℹ 1 more variable: empirical_pvaf <chr>
…
